1 10 20
100 200 125
201 210 89
900 1000 174
10 1 20
200 100 125
210 201 89
900 1000 174
1 1 1
5 1 8
999999 999998 259
999998 999999 259
428 439 116
145 251 128
13 354 144
11 459 144
118 358 144
135 362 144
179 328 144
117 473 144
48 126 119
268 478 144
261 334 144
303 454 144
119 443 144
72 277 128
236 421 144
7 214 125
61 299 128
77 246 128
120 355 144
161 410 144
4 360 144
49 131 122
158 377 144
99 286 128
39 124 119
156 284 128
185 485 144
186 280 128
10 302 128
173 396 144
37 471 144
402 471 134
366 462 134
63 368 144
275 329 144
157 287 128
79 243 128
53 100 119
124 151 122
95 317 131
64 267 128
325 448 144
190 243 128
221 367 144
284 424 144
35 360 144
264 364 144
128 155 122
288 429 144
340 4812 238
724 4612 238
134 1461 182
2774 3021 217
400 546 142
3285 3903 238
2416 3840 238
1406 3067 217
2451 3710 217
578 4939 238
413 1728 182
812 4973 238
3104 3279 199
487 741 171
2842 3546 217
575 2803 209
1574 2148 180
3369 3976 238
1168 3615 217
559 954 179
1621 1847 180
4022 4380 215
292 1815 182
2610 4022 238
666 854 171
175 3440 217
683 1747 182
2563 3302 217
1372 1876 180
2427 4726 238
2590 3131 217
320 3953 238
3598 4328 238
996 1339 182
805 1239 182
2885 4653 238
1727 3504 217
1319 2369 183
3080 4945 238
1582 1662 167
800 1616 182
1857 4759 238
1476 3275 217
142 823 171
1514 4074 238
287 749 171
1827 2540 209
1881 3257 217
3753 3850 176
183 185 94
181 184 94
84 136 122
66 147 122
16 101 119
57 200 125
105 192 125
87 124 119
108 149 122
30 54 113
59 78 116
14 143 122
93 147 122
9 102 119
34 92 116
82 178 125
93 132 122
142 177 125
62 129 122
38 99 119
115 142 122
104 200 125
181 190 107
174 198 120
2 164 122
67 70 28
20 159 122
147 163 117
85 159 122
47 56 113
57 78 116
80 88 111
48 64 113
66 130 122
150 176 125
43 124 119
17 77 116
74 112 119
8 131 122
35 164 122
28 171 125
107 175 125
2 56 113
72 85 116
48 109 119
21 195 125
43 101 119
43 75 116
141 170 117
43 55 113
2 174 125
16 87 116
86 149 122
106 163 122
11 79 116
7 61 113
133 171 125
144 180 125
35 76 116
