1 10 20
100 200 125
201 210 89
1 1 1
293 369 144
106 522 144
328 524 142
317 712 171
136 118 122
156 546 144
319 520 144
65 724 171
133 90 122
251 438 144
208 326 131
472 17 144
157 675 145
395 759 171
178 280 128
13 136 122
71 925 179
269 459 144
393 710 171
292 502 144
31464 908635 525
750506 712824 424
475782 453023 444
547518 447283 470
271176 274397 358
266463 517485 470
319243 24038 443
660959 441023 509
724987 966398 525
967680 906690 507
559963 852332 525
663430 985773 525
946408 937469 507
842805 931906 476
319958 455086 449
47203 876664 525
530753 849730 525
882724 4166 525
978739 255912 525
132963 92907 354
998449 260833 525
756393 830046 468
375097 988230 525
976450 374797 525
181268 949156 525
183499 71497 383
682577 21626 509
317097 764211 509
979803 866461 507
318262 46628 443
789979 670041 504
933529 249948 525
263100 585608 470
472446 543687 470
965677 277407 525
56928 959823 525
9780 622896 470
521688 230800 470
781797 22456 509
389346 798569 509
401054 997336 525
676850 695837 442
241215 460568 449
996044 592887 525
227043 981220 525
504645 452368 444
762595 321382 509
171417 651215 509
392614 908988 525
751011 190218 509
720377 924196 525
512517 320271 470
247876 175246 443
825375 310713 509
821471 133341 509
470353 404236 449
235589 899842 525
384368 346039 423
512854 371798 470
351312 346630 366
748375 842748 525
339964 866950 525
476622 532679 470
329990 278377 389
570723 370128 470
783674 364863 509
810628 751742 468
910462 352058 525
706075 119814 509
429465 109059 449
353854 345975 379
416908 732771 509
970119 327123 525
505202 9484 449
331542 330792 291
316873 642286 509
274644 201848 443
289991 542718 470
72485 376849 443
917749 858705 476
532057 743327 509
515759 503591 470
460720 810435 509
463563 493340 426
316392 653116 509
921494 605772 525
405301 253500 441
727241 185329 509
279507 77674 443
427986 674833 509
926786 330245 525
291204 872737 525
239709 261075 368
901458 778195 525
19293 60224 340
419157 658603 509
355551 378527 423
774190 957374 525
144473 541803 470
511659 984135 525
