..................
----------------------------------------------------------------------
Ran 18 tests in 0.940s

OK
Name             Stmts   Miss Branch BrPart  Cover   Missing
------------------------------------------------------------
Collatz.py          42      0     16      0   100%
TestCollatz.py      80      0      0      0   100%
------------------------------------------------------------
TOTAL              122      0     16      0   100%
