1 10 20
100 200 125
201 210 89
900 1000 174
246 632 144
601 211 144
23 34 112
298 737 171
662 161 145
234 112 128
786 218 171
350 684 145
423 118 144
60 73 116
65633 881 340
61561 14337 340
24328 64112 340
214 816 171
12 545 144
953 294 179
596 583 119
323 266 131
123 112 96
12321 24232 282
945 343 179
3421 1123 217
99339 29222 351
2222 2221 33
1232 112 182
122 1 119
2322 3948 238
2333 2222 183
1221 22 182
193 191 120
122 111 96
12929 11919 263
1111 111 179
1192 11 182
573 122 144
77448 2828 351
28289 4844 308
33838 3888 308
3222 909 217
84933 82828 320
292 923 179
2343 1122 183
48393 222 324
12 232 128
122 102 114
2828 222 209
2282 1232 183
1438 828 182
359 486 134
237 79 128
94819 78875 333
43272 64526 340
94509 29627 351
842 18 171
1 500 144
345 523 142
100 123 114
1 20000 279
1 100000 351
95969 78567 338
65324 64735 268
1 99999 351
3393 1812 217
1221 1919 180
211 9229 262
29292 292 308
2929 2221 217
483 828 171
292 191 128
9191 11 262
101 101 26
2929 291 217
1010 234 179
1017 1771 182
1818 110 182
12 4 20
12 19 21
191 282 128
119 1818 182
1818 123 182
11 121 119
122 282 128
119 120 34
383 299 144
5757 477 238
3838 282 238
119 282 128
1991 2345 183
123 188 125
818 338 171
9292 1919 262
1919 234 182
191 757 171
737 77 171
2828 2343 209
2888 5796 238
22 45 112
4543 3838 215
3838 99 238
100 99 26
282 445 144
383 33 144
3883 457 238
282 888 179
882 123 179
818 234 171
567 377 142
383 456 134
383 77 144
56 55 113
456 474 129
4848 888 238
337 237 144
285 337 144
