1 10 20
100 200 125
201 210 89
900 1000 174
10 1 20
100 100 26
1000 2000 182
999999 999999 259
999999 999998 259
214262 476761 449
729887 337674 509
778808 3765 509
18387 926502 525
622117 194057 470
894679 451283 525
609328 750534 509
103936 495 351
290825 706825 509
709870 796178 468
11392 452420 449
338977 485514 449
584812 570896 434
205080 732720 509
240573 685749 509
481001 415851 444
875921 662715 525
704217 484649 509
593017 924984 525
159296 431216 449
825352 920336 525
731157 571897 509
605716 127468 470
229740 861060 525
348719 133979 443
608607 237393 470
436131 457118 400
36577 306383 443
188212 745548 509
851108 446006 525
900873 172674 525
420454 979106 525
562217 642144 509
310594 324817 384
662486 654871 429
14931 667643 509
603540 736155 509
620585 734912 509
117002 658659 509
419550 792912 509
734562 57990 509
504864 272893 449
100595 531838 470
261378 307595 407
610596 101992 470
293890 649054 509
423147 562575 470
867762 513818 525
375800 336749 441
27734 754478 509
557856 109060 470
580520 842389 525
847173 117825 525
820344 754982 468
714104 541529 509
587907 638292 509
163723 335314 443
672780 931225 525
762118 143491 509
403938 997188 525
542447 850588 525
534239 805460 509
263539 737812 509
309087 974811 525
6243 785978 509
297900 346519 441
123115 311208 443
570189 816050 509
263611 825673 509
406445 523315 470
771531 262338 509
670486 305603 509
268152 332974 407
705294 792151 468
387391 555179 470
821225 955167 525
607726 332172 470
433901 965646 525
599096 632049 509
906258 549753 525
52126 469780 449
553659 659683 509
826011 972776 525
541433 657660 509
232782 133944 443
419791 709020 509
327151 473926 449
436928 469365 444
201204 306307 443
674226 13319 509
250755 145165 443
411366 640218 509
703570 881536 525
597069 32520 470
141100 129633 344
650977 196184 509
136644 939686 525
533460 748871 509
497047 339165 449
607821 352806 470
456642 765069 509
